(kicad_sch (version 20230121) (generator eeschema)

  (uuid b8dd6313-79b0-486e-b3c8-bee088195b72)

  (paper "A4")

  (lib_symbols
    (symbol "Connector:Conn_01x12_Socket" (pin_names (offset 1.016) hide) (in_bom yes) (on_board yes)
      (property "Reference" "J" (at 0 15.24 0)
        (effects (font (size 1.27 1.27)))
      )
      (property "Value" "Conn_01x12_Socket" (at 0 -17.78 0)
        (effects (font (size 1.27 1.27)))
      )
      (property "Footprint" "" (at 0 0 0)
        (effects (font (size 1.27 1.27)) hide)
      )
      (property "Datasheet" "~" (at 0 0 0)
        (effects (font (size 1.27 1.27)) hide)
      )
      (property "ki_locked" "" (at 0 0 0)
        (effects (font (size 1.27 1.27)))
      )
      (property "ki_keywords" "connector" (at 0 0 0)
        (effects (font (size 1.27 1.27)) hide)
      )
      (property "ki_description" "Generic connector, single row, 01x12, script generated" (at 0 0 0)
        (effects (font (size 1.27 1.27)) hide)
      )
      (property "ki_fp_filters" "Connector*:*_1x??_*" (at 0 0 0)
        (effects (font (size 1.27 1.27)) hide)
      )
      (symbol "Conn_01x12_Socket_1_1"
        (arc (start 0 -14.732) (mid -0.5058 -15.24) (end 0 -15.748)
          (stroke (width 0.1524) (type default))
          (fill (type none))
        )
        (arc (start 0 -12.192) (mid -0.5058 -12.7) (end 0 -13.208)
          (stroke (width 0.1524) (type default))
          (fill (type none))
        )
        (arc (start 0 -9.652) (mid -0.5058 -10.16) (end 0 -10.668)
          (stroke (width 0.1524) (type default))
          (fill (type none))
        )
        (arc (start 0 -7.112) (mid -0.5058 -7.62) (end 0 -8.128)
          (stroke (width 0.1524) (type default))
          (fill (type none))
        )
        (arc (start 0 -4.572) (mid -0.5058 -5.08) (end 0 -5.588)
          (stroke (width 0.1524) (type default))
          (fill (type none))
        )
        (arc (start 0 -2.032) (mid -0.5058 -2.54) (end 0 -3.048)
          (stroke (width 0.1524) (type default))
          (fill (type none))
        )
        (polyline
          (pts
            (xy -1.27 -15.24)
            (xy -0.508 -15.24)
          )
          (stroke (width 0.1524) (type default))
          (fill (type none))
        )
        (polyline
          (pts
            (xy -1.27 -12.7)
            (xy -0.508 -12.7)
          )
          (stroke (width 0.1524) (type default))
          (fill (type none))
        )
        (polyline
          (pts
            (xy -1.27 -10.16)
            (xy -0.508 -10.16)
          )
          (stroke (width 0.1524) (type default))
          (fill (type none))
        )
        (polyline
          (pts
            (xy -1.27 -7.62)
            (xy -0.508 -7.62)
          )
          (stroke (width 0.1524) (type default))
          (fill (type none))
        )
        (polyline
          (pts
            (xy -1.27 -5.08)
            (xy -0.508 -5.08)
          )
          (stroke (width 0.1524) (type default))
          (fill (type none))
        )
        (polyline
          (pts
            (xy -1.27 -2.54)
            (xy -0.508 -2.54)
          )
          (stroke (width 0.1524) (type default))
          (fill (type none))
        )
        (polyline
          (pts
            (xy -1.27 0)
            (xy -0.508 0)
          )
          (stroke (width 0.1524) (type default))
          (fill (type none))
        )
        (polyline
          (pts
            (xy -1.27 2.54)
            (xy -0.508 2.54)
          )
          (stroke (width 0.1524) (type default))
          (fill (type none))
        )
        (polyline
          (pts
            (xy -1.27 5.08)
            (xy -0.508 5.08)
          )
          (stroke (width 0.1524) (type default))
          (fill (type none))
        )
        (polyline
          (pts
            (xy -1.27 7.62)
            (xy -0.508 7.62)
          )
          (stroke (width 0.1524) (type default))
          (fill (type none))
        )
        (polyline
          (pts
            (xy -1.27 10.16)
            (xy -0.508 10.16)
          )
          (stroke (width 0.1524) (type default))
          (fill (type none))
        )
        (polyline
          (pts
            (xy -1.27 12.7)
            (xy -0.508 12.7)
          )
          (stroke (width 0.1524) (type default))
          (fill (type none))
        )
        (arc (start 0 0.508) (mid -0.5058 0) (end 0 -0.508)
          (stroke (width 0.1524) (type default))
          (fill (type none))
        )
        (arc (start 0 3.048) (mid -0.5058 2.54) (end 0 2.032)
          (stroke (width 0.1524) (type default))
          (fill (type none))
        )
        (arc (start 0 5.588) (mid -0.5058 5.08) (end 0 4.572)
          (stroke (width 0.1524) (type default))
          (fill (type none))
        )
        (arc (start 0 8.128) (mid -0.5058 7.62) (end 0 7.112)
          (stroke (width 0.1524) (type default))
          (fill (type none))
        )
        (arc (start 0 10.668) (mid -0.5058 10.16) (end 0 9.652)
          (stroke (width 0.1524) (type default))
          (fill (type none))
        )
        (arc (start 0 13.208) (mid -0.5058 12.7) (end 0 12.192)
          (stroke (width 0.1524) (type default))
          (fill (type none))
        )
        (pin passive line (at -5.08 12.7 0) (length 3.81)
          (name "Pin_1" (effects (font (size 1.27 1.27))))
          (number "1" (effects (font (size 1.27 1.27))))
        )
        (pin passive line (at -5.08 -10.16 0) (length 3.81)
          (name "Pin_10" (effects (font (size 1.27 1.27))))
          (number "10" (effects (font (size 1.27 1.27))))
        )
        (pin passive line (at -5.08 -12.7 0) (length 3.81)
          (name "Pin_11" (effects (font (size 1.27 1.27))))
          (number "11" (effects (font (size 1.27 1.27))))
        )
        (pin passive line (at -5.08 -15.24 0) (length 3.81)
          (name "Pin_12" (effects (font (size 1.27 1.27))))
          (number "12" (effects (font (size 1.27 1.27))))
        )
        (pin passive line (at -5.08 10.16 0) (length 3.81)
          (name "Pin_2" (effects (font (size 1.27 1.27))))
          (number "2" (effects (font (size 1.27 1.27))))
        )
        (pin passive line (at -5.08 7.62 0) (length 3.81)
          (name "Pin_3" (effects (font (size 1.27 1.27))))
          (number "3" (effects (font (size 1.27 1.27))))
        )
        (pin passive line (at -5.08 5.08 0) (length 3.81)
          (name "Pin_4" (effects (font (size 1.27 1.27))))
          (number "4" (effects (font (size 1.27 1.27))))
        )
        (pin passive line (at -5.08 2.54 0) (length 3.81)
          (name "Pin_5" (effects (font (size 1.27 1.27))))
          (number "5" (effects (font (size 1.27 1.27))))
        )
        (pin passive line (at -5.08 0 0) (length 3.81)
          (name "Pin_6" (effects (font (size 1.27 1.27))))
          (number "6" (effects (font (size 1.27 1.27))))
        )
        (pin passive line (at -5.08 -2.54 0) (length 3.81)
          (name "Pin_7" (effects (font (size 1.27 1.27))))
          (number "7" (effects (font (size 1.27 1.27))))
        )
        (pin passive line (at -5.08 -5.08 0) (length 3.81)
          (name "Pin_8" (effects (font (size 1.27 1.27))))
          (number "8" (effects (font (size 1.27 1.27))))
        )
        (pin passive line (at -5.08 -7.62 0) (length 3.81)
          (name "Pin_9" (effects (font (size 1.27 1.27))))
          (number "9" (effects (font (size 1.27 1.27))))
        )
      )
    )
    (symbol "Connector:Conn_Coaxial" (pin_names (offset 1.016) hide) (in_bom yes) (on_board yes)
      (property "Reference" "J" (at 0.254 3.048 0)
        (effects (font (size 1.27 1.27)))
      )
      (property "Value" "Conn_Coaxial" (at 2.921 0 90)
        (effects (font (size 1.27 1.27)))
      )
      (property "Footprint" "" (at 0 0 0)
        (effects (font (size 1.27 1.27)) hide)
      )
      (property "Datasheet" " ~" (at 0 0 0)
        (effects (font (size 1.27 1.27)) hide)
      )
      (property "ki_keywords" "BNC SMA SMB SMC LEMO coaxial connector CINCH RCA" (at 0 0 0)
        (effects (font (size 1.27 1.27)) hide)
      )
      (property "ki_description" "coaxial connector (BNC, SMA, SMB, SMC, Cinch/RCA, LEMO, ...)" (at 0 0 0)
        (effects (font (size 1.27 1.27)) hide)
      )
      (property "ki_fp_filters" "*BNC* *SMA* *SMB* *SMC* *Cinch* *LEMO*" (at 0 0 0)
        (effects (font (size 1.27 1.27)) hide)
      )
      (symbol "Conn_Coaxial_0_1"
        (arc (start -1.778 -0.508) (mid 0.2311 -1.8066) (end 1.778 0)
          (stroke (width 0.254) (type default))
          (fill (type none))
        )
        (polyline
          (pts
            (xy -2.54 0)
            (xy -0.508 0)
          )
          (stroke (width 0) (type default))
          (fill (type none))
        )
        (polyline
          (pts
            (xy 0 -2.54)
            (xy 0 -1.778)
          )
          (stroke (width 0) (type default))
          (fill (type none))
        )
        (circle (center 0 0) (radius 0.508)
          (stroke (width 0.2032) (type default))
          (fill (type none))
        )
        (arc (start 1.778 0) (mid 0.2099 1.8101) (end -1.778 0.508)
          (stroke (width 0.254) (type default))
          (fill (type none))
        )
      )
      (symbol "Conn_Coaxial_1_1"
        (pin passive line (at -5.08 0 0) (length 2.54)
          (name "In" (effects (font (size 1.27 1.27))))
          (number "1" (effects (font (size 1.27 1.27))))
        )
        (pin passive line (at 0 -5.08 90) (length 2.54)
          (name "Ext" (effects (font (size 1.27 1.27))))
          (number "2" (effects (font (size 1.27 1.27))))
        )
      )
    )
    (symbol "Device:C" (pin_numbers hide) (pin_names (offset 0.254)) (in_bom yes) (on_board yes)
      (property "Reference" "C" (at 0.635 2.54 0)
        (effects (font (size 1.27 1.27)) (justify left))
      )
      (property "Value" "C" (at 0.635 -2.54 0)
        (effects (font (size 1.27 1.27)) (justify left))
      )
      (property "Footprint" "" (at 0.9652 -3.81 0)
        (effects (font (size 1.27 1.27)) hide)
      )
      (property "Datasheet" "~" (at 0 0 0)
        (effects (font (size 1.27 1.27)) hide)
      )
      (property "ki_keywords" "cap capacitor" (at 0 0 0)
        (effects (font (size 1.27 1.27)) hide)
      )
      (property "ki_description" "Unpolarized capacitor" (at 0 0 0)
        (effects (font (size 1.27 1.27)) hide)
      )
      (property "ki_fp_filters" "C_*" (at 0 0 0)
        (effects (font (size 1.27 1.27)) hide)
      )
      (symbol "C_0_1"
        (polyline
          (pts
            (xy -2.032 -0.762)
            (xy 2.032 -0.762)
          )
          (stroke (width 0.508) (type default))
          (fill (type none))
        )
        (polyline
          (pts
            (xy -2.032 0.762)
            (xy 2.032 0.762)
          )
          (stroke (width 0.508) (type default))
          (fill (type none))
        )
      )
      (symbol "C_1_1"
        (pin passive line (at 0 3.81 270) (length 2.794)
          (name "~" (effects (font (size 1.27 1.27))))
          (number "1" (effects (font (size 1.27 1.27))))
        )
        (pin passive line (at 0 -3.81 90) (length 2.794)
          (name "~" (effects (font (size 1.27 1.27))))
          (number "2" (effects (font (size 1.27 1.27))))
        )
      )
    )
    (symbol "Mechanical:MountingHole_Pad" (pin_numbers hide) (pin_names (offset 1.016) hide) (in_bom yes) (on_board yes)
      (property "Reference" "H" (at 0 6.35 0)
        (effects (font (size 1.27 1.27)))
      )
      (property "Value" "MountingHole_Pad" (at 0 4.445 0)
        (effects (font (size 1.27 1.27)))
      )
      (property "Footprint" "" (at 0 0 0)
        (effects (font (size 1.27 1.27)) hide)
      )
      (property "Datasheet" "~" (at 0 0 0)
        (effects (font (size 1.27 1.27)) hide)
      )
      (property "ki_keywords" "mounting hole" (at 0 0 0)
        (effects (font (size 1.27 1.27)) hide)
      )
      (property "ki_description" "Mounting Hole with connection" (at 0 0 0)
        (effects (font (size 1.27 1.27)) hide)
      )
      (property "ki_fp_filters" "MountingHole*Pad*" (at 0 0 0)
        (effects (font (size 1.27 1.27)) hide)
      )
      (symbol "MountingHole_Pad_0_1"
        (circle (center 0 1.27) (radius 1.27)
          (stroke (width 1.27) (type default))
          (fill (type none))
        )
      )
      (symbol "MountingHole_Pad_1_1"
        (pin input line (at 0 -2.54 90) (length 2.54)
          (name "1" (effects (font (size 1.27 1.27))))
          (number "1" (effects (font (size 1.27 1.27))))
        )
      )
    )
    (symbol "power:GND" (power) (pin_names (offset 0)) (in_bom yes) (on_board yes)
      (property "Reference" "#PWR" (at 0 -6.35 0)
        (effects (font (size 1.27 1.27)) hide)
      )
      (property "Value" "GND" (at 0 -3.81 0)
        (effects (font (size 1.27 1.27)))
      )
      (property "Footprint" "" (at 0 0 0)
        (effects (font (size 1.27 1.27)) hide)
      )
      (property "Datasheet" "" (at 0 0 0)
        (effects (font (size 1.27 1.27)) hide)
      )
      (property "ki_keywords" "global power" (at 0 0 0)
        (effects (font (size 1.27 1.27)) hide)
      )
      (property "ki_description" "Power symbol creates a global label with name \"GND\" , ground" (at 0 0 0)
        (effects (font (size 1.27 1.27)) hide)
      )
      (symbol "GND_0_1"
        (polyline
          (pts
            (xy 0 0)
            (xy 0 -1.27)
            (xy 1.27 -1.27)
            (xy 0 -2.54)
            (xy -1.27 -1.27)
            (xy 0 -1.27)
          )
          (stroke (width 0) (type default))
          (fill (type none))
        )
      )
      (symbol "GND_1_1"
        (pin power_in line (at 0 0 270) (length 0) hide
          (name "GND" (effects (font (size 1.27 1.27))))
          (number "1" (effects (font (size 1.27 1.27))))
        )
      )
    )
  )


  (wire (pts (xy 92.71 82.55) (xy 92.71 87.63))
    (stroke (width 0) (type default))
    (uuid 013c313c-c9db-4355-bdc5-3dfddff368ef)
  )
  (wire (pts (xy 156.21 93.98) (xy 163.83 93.98))
    (stroke (width 0) (type default))
    (uuid 05395d3c-447d-4d6f-8bee-253e9cfb1b93)
  )
  (wire (pts (xy 115.57 93.98) (xy 123.19 93.98))
    (stroke (width 0) (type default))
    (uuid 16f47be9-6d35-4bf3-9890-f6a23b36c39a)
  )
  (wire (pts (xy 25.4 93.98) (xy 27.94 93.98))
    (stroke (width 0) (type default))
    (uuid 2315f39e-d7d9-4c6f-b814-b71d7ed4332c)
  )
  (wire (pts (xy 133.35 82.55) (xy 133.35 87.63))
    (stroke (width 0) (type default))
    (uuid 23a75af2-e4dd-4a38-8620-ae17fd8383ae)
  )
  (wire (pts (xy 139.7 82.55) (xy 139.7 87.63))
    (stroke (width 0) (type default))
    (uuid 3198707c-19e8-4574-8453-916aa79718a9)
  )
  (wire (pts (xy 173.99 82.55) (xy 173.99 87.63))
    (stroke (width 0) (type default))
    (uuid 3c81b15e-5c4a-48e8-9d3f-c6371254c411)
  )
  (wire (pts (xy 146.05 82.55) (xy 146.05 87.63))
    (stroke (width 0) (type default))
    (uuid 3ceadb78-8686-4e89-9015-90834cb40f38)
  )
  (wire (pts (xy 99.06 82.55) (xy 99.06 87.63))
    (stroke (width 0) (type default))
    (uuid 43cf7b38-5149-48c9-9391-902918a895fd)
  )
  (wire (pts (xy 57.15 82.55) (xy 57.15 87.63))
    (stroke (width 0) (type default))
    (uuid 52a8aee6-b862-49f5-91f6-ed195cd46c5a)
  )
  (wire (pts (xy 35.56 93.98) (xy 40.64 93.98))
    (stroke (width 0) (type default))
    (uuid 73df4bdb-7d3c-4d7d-8ac4-0b1ad9fa6c08)
  )
  (wire (pts (xy 74.93 93.98) (xy 82.55 93.98))
    (stroke (width 0) (type default))
    (uuid 78b9ae3d-1bc2-4d40-8620-8d437442e4e2)
  )
  (wire (pts (xy 213.36 82.55) (xy 213.36 87.63))
    (stroke (width 0) (type default))
    (uuid 7ae802bb-b20d-4daf-ada6-41fb5ab91dab)
  )
  (wire (pts (xy 105.41 82.55) (xy 105.41 87.63))
    (stroke (width 0) (type default))
    (uuid 9cd777b1-afd4-4999-8f0b-93438ddd8f7b)
  )
  (wire (pts (xy 180.34 82.55) (xy 180.34 87.63))
    (stroke (width 0) (type default))
    (uuid ad97fb2f-adcb-4c54-8892-9c5ef3f0a7a0)
  )
  (wire (pts (xy 63.5 82.55) (xy 63.5 87.63))
    (stroke (width 0) (type default))
    (uuid b5b7d572-c763-4080-b695-f1a84d88ddf6)
  )
  (wire (pts (xy 226.06 82.55) (xy 226.06 87.63))
    (stroke (width 0) (type default))
    (uuid bfdba4a5-39f7-4973-8f63-72a4f9d6ce16)
  )
  (wire (pts (xy 50.8 82.55) (xy 50.8 87.63))
    (stroke (width 0) (type default))
    (uuid c2d94265-38d3-4c77-a369-6e8e5ca4b7a6)
  )
  (wire (pts (xy 186.69 82.55) (xy 186.69 87.63))
    (stroke (width 0) (type default))
    (uuid c478fab7-f995-426e-a7cf-24ad5c79736f)
  )
  (wire (pts (xy 196.85 93.98) (xy 204.47 93.98))
    (stroke (width 0) (type default))
    (uuid ccc37dbe-61e2-4688-b685-ba030540d98c)
  )
  (wire (pts (xy 237.49 93.98) (xy 241.3 93.98))
    (stroke (width 0) (type default))
    (uuid d14b19dc-225c-433e-803c-f530498e06d1)
  )
  (wire (pts (xy 219.71 82.55) (xy 219.71 87.63))
    (stroke (width 0) (type default))
    (uuid e2183e7c-efb7-4036-a6b6-8efe448a0c50)
  )

  (label "CTRL5" (at 146.05 82.55 90) (fields_autoplaced)
    (effects (font (size 1.27 1.27)) (justify left bottom))
    (uuid 156e9e81-75fb-4ce7-ae72-05bef0ea090f)
  )
  (label "3V" (at 180.34 82.55 90) (fields_autoplaced)
    (effects (font (size 1.27 1.27)) (justify left bottom))
    (uuid 1ed3afd2-4c87-4e5e-8390-401052d24489)
  )
  (label "CTRL7" (at 133.35 58.42 90) (fields_autoplaced)
    (effects (font (size 1.27 1.27)) (justify left bottom))
    (uuid 323e9096-c0aa-4f9f-8a53-9198675dcdfd)
  )
  (label "CTRL2" (at 50.8 82.55 90) (fields_autoplaced)
    (effects (font (size 1.27 1.27)) (justify left bottom))
    (uuid 396a6b3e-373c-453e-a1b9-d2615d7d5ad6)
  )
  (label "CTRL2" (at 120.65 58.42 90) (fields_autoplaced)
    (effects (font (size 1.27 1.27)) (justify left bottom))
    (uuid 3c5e99ed-3063-44e5-ad0e-c3f81bf35fd7)
  )
  (label "CTRL6" (at 133.35 82.55 90) (fields_autoplaced)
    (effects (font (size 1.27 1.27)) (justify left bottom))
    (uuid 4ca64266-57ce-429a-882e-eaa4626828ed)
  )
  (label "3V" (at 219.71 82.55 90) (fields_autoplaced)
    (effects (font (size 1.27 1.27)) (justify left bottom))
    (uuid 4e99d993-468b-4e51-b32a-f2c196062a95)
  )
  (label "CTRL6" (at 138.43 58.42 90) (fields_autoplaced)
    (effects (font (size 1.27 1.27)) (justify left bottom))
    (uuid 547720fd-a574-488b-80c0-f02784bcd7c1)
  )
  (label "CTRL5" (at 135.89 58.42 90) (fields_autoplaced)
    (effects (font (size 1.27 1.27)) (justify left bottom))
    (uuid 555a973e-73f3-4127-b77e-1bf30644cb37)
  )
  (label "3V" (at 99.06 82.55 90) (fields_autoplaced)
    (effects (font (size 1.27 1.27)) (justify left bottom))
    (uuid 5561294a-f05c-43a1-9dc5-41c021656ab9)
  )
  (label "CTRL9" (at 123.19 58.42 90) (fields_autoplaced)
    (effects (font (size 1.27 1.27)) (justify left bottom))
    (uuid 591a728e-838c-4c88-942a-530179fe2101)
  )
  (label "CTRL10" (at 213.36 82.55 90) (fields_autoplaced)
    (effects (font (size 1.27 1.27)) (justify left bottom))
    (uuid 5d208cee-4d7c-49e5-b48f-dfd946dc6e41)
  )
  (label "CTRL3" (at 105.41 82.55 90) (fields_autoplaced)
    (effects (font (size 1.27 1.27)) (justify left bottom))
    (uuid 63835678-b569-4b0d-a13e-aee02f5a3e10)
  )
  (label "CTRL3" (at 125.73 58.42 90) (fields_autoplaced)
    (effects (font (size 1.27 1.27)) (justify left bottom))
    (uuid 65b7d9e5-b86a-4ea2-9168-e8cc7030440d)
  )
  (label "CTRL1" (at 63.5 82.55 90) (fields_autoplaced)
    (effects (font (size 1.27 1.27)) (justify left bottom))
    (uuid 68c4fe7b-c200-419d-81f5-f207cf074ca3)
  )
  (label "3V" (at 139.7 82.55 90) (fields_autoplaced)
    (effects (font (size 1.27 1.27)) (justify left bottom))
    (uuid 87969916-be9b-4fab-9e43-19dc3d1491a0)
  )
  (label "CTRL4" (at 130.81 58.42 90) (fields_autoplaced)
    (effects (font (size 1.27 1.27)) (justify left bottom))
    (uuid 8eb9f714-e8c4-40c0-9de4-2ebc45605404)
  )
  (label "CTRL4" (at 92.71 82.55 90) (fields_autoplaced)
    (effects (font (size 1.27 1.27)) (justify left bottom))
    (uuid 91a74ac6-e9fb-44d5-827a-9b85aed54d5d)
  )
  (label "3V" (at 113.03 58.42 90) (fields_autoplaced)
    (effects (font (size 1.27 1.27)) (justify left bottom))
    (uuid 9938b72a-a9e9-4b70-ab24-c503a7f466ed)
  )
  (label "CTRL1" (at 115.57 58.42 90) (fields_autoplaced)
    (effects (font (size 1.27 1.27)) (justify left bottom))
    (uuid 9a92375a-b6f5-49e2-8882-a08c3945d4ea)
  )
  (label "CTRL7" (at 186.69 82.55 90) (fields_autoplaced)
    (effects (font (size 1.27 1.27)) (justify left bottom))
    (uuid b6e660a5-6dfa-456f-a079-35254057366f)
  )
  (label "CTRL10" (at 118.11 58.42 90) (fields_autoplaced)
    (effects (font (size 1.27 1.27)) (justify left bottom))
    (uuid d6fdc9a8-5963-4092-aad2-32b9d1f000de)
  )
  (label "CTRL8" (at 128.27 58.42 90) (fields_autoplaced)
    (effects (font (size 1.27 1.27)) (justify left bottom))
    (uuid ed0f194f-bec2-4dde-b818-e1e1e96a0eca)
  )
  (label "CTRL9" (at 226.06 82.55 90) (fields_autoplaced)
    (effects (font (size 1.27 1.27)) (justify left bottom))
    (uuid ed994836-dba4-4c85-b668-6d1456305e26)
  )
  (label "3V" (at 57.15 82.55 90) (fields_autoplaced)
    (effects (font (size 1.27 1.27)) (justify left bottom))
    (uuid f10d724a-67b5-472c-b250-997975a2a49c)
  )
  (label "CTRL8" (at 173.99 82.55 90) (fields_autoplaced)
    (effects (font (size 1.27 1.27)) (justify left bottom))
    (uuid f229e281-6a8d-49d4-aeae-a7d85ede39a2)
  )

  (symbol (lib_id "power:GND") (at 127 129.54 0) (unit 1)
    (in_bom yes) (on_board yes) (dnp no) (fields_autoplaced)
    (uuid 11f6fc3b-0981-4c31-a14f-002dc08ebd58)
    (property "Reference" "#PWR07" (at 127 135.89 0)
      (effects (font (size 1.27 1.27)) hide)
    )
    (property "Value" "GND" (at 127 134.62 0)
      (effects (font (size 1.27 1.27)))
    )
    (property "Footprint" "" (at 127 129.54 0)
      (effects (font (size 1.27 1.27)) hide)
    )
    (property "Datasheet" "" (at 127 129.54 0)
      (effects (font (size 1.27 1.27)) hide)
    )
    (pin "1" (uuid 7e38402d-5152-4b27-9bfa-0d051efe3b51))
    (instances
      (project "resistive_attenuators"
        (path "/b8dd6313-79b0-486e-b3c8-bee088195b72"
          (reference "#PWR07") (unit 1)
        )
      )
    )
  )

  (symbol (lib_id "power:GND") (at 152.4 129.54 0) (unit 1)
    (in_bom yes) (on_board yes) (dnp no) (fields_autoplaced)
    (uuid 141f65e3-bc06-4069-810b-3bb61bb388ec)
    (property "Reference" "#PWR08" (at 152.4 135.89 0)
      (effects (font (size 1.27 1.27)) hide)
    )
    (property "Value" "GND" (at 152.4 134.62 0)
      (effects (font (size 1.27 1.27)))
    )
    (property "Footprint" "" (at 152.4 129.54 0)
      (effects (font (size 1.27 1.27)) hide)
    )
    (property "Datasheet" "" (at 152.4 129.54 0)
      (effects (font (size 1.27 1.27)) hide)
    )
    (pin "1" (uuid 4393f807-15ac-42b9-8c2d-8ddb03f9aa9a))
    (instances
      (project "resistive_attenuators"
        (path "/b8dd6313-79b0-486e-b3c8-bee088195b72"
          (reference "#PWR08") (unit 1)
        )
      )
    )
  )

  (symbol (lib_id "Connector:Conn_Coaxial") (at 254 93.98 0) (unit 1)
    (in_bom yes) (on_board yes) (dnp no) (fields_autoplaced)
    (uuid 23a95238-8dc2-44ca-9a80-6d3ca7db9d6d)
    (property "Reference" "J2" (at 257.81 93.0032 0)
      (effects (font (size 1.27 1.27)) (justify left))
    )
    (property "Value" "Conn_Coaxial" (at 257.81 95.5432 0)
      (effects (font (size 1.27 1.27)) (justify left))
    )
    (property "Footprint" "Connector_Coaxial:SMA_Amphenol_132289_EdgeMount" (at 254 93.98 0)
      (effects (font (size 1.27 1.27)) hide)
    )
    (property "Datasheet" " ~" (at 254 93.98 0)
      (effects (font (size 1.27 1.27)) hide)
    )
    (pin "1" (uuid 0501bd83-bcb3-496f-9a53-62473f5487c6))
    (pin "2" (uuid 7c6d3ec0-1c58-453f-b3cf-64b3c5144b47))
    (instances
      (project "resistive_attenuators"
        (path "/b8dd6313-79b0-486e-b3c8-bee088195b72"
          (reference "J2") (unit 1)
        )
      )
    )
  )

  (symbol (lib_id "Device:C") (at 245.11 93.98 90) (unit 1)
    (in_bom yes) (on_board yes) (dnp no) (fields_autoplaced)
    (uuid 330afa44-069d-4ea7-bacf-014da1a47552)
    (property "Reference" "C22" (at 245.11 86.36 90)
      (effects (font (size 1.27 1.27)))
    )
    (property "Value" "1n" (at 245.11 88.9 90)
      (effects (font (size 1.27 1.27)))
    )
    (property "Footprint" "Capacitor_SMD:C_0603_1608Metric" (at 248.92 93.0148 0)
      (effects (font (size 1.27 1.27)) hide)
    )
    (property "Datasheet" "~" (at 245.11 93.98 0)
      (effects (font (size 1.27 1.27)) hide)
    )
    (pin "2" (uuid 0f53bf64-ed2a-4cc2-b2bf-1a6e71309bee))
    (pin "1" (uuid 39c65229-fa07-4184-92dc-d63df397e10c))
    (instances
      (project "resistive_attenuators"
        (path "/b8dd6313-79b0-486e-b3c8-bee088195b72"
          (reference "C22") (unit 1)
        )
      )
    )
  )

  (symbol (lib_id "Mechanical:MountingHole_Pad") (at 127 127 0) (unit 1)
    (in_bom yes) (on_board yes) (dnp no) (fields_autoplaced)
    (uuid 44c64351-fc9f-41aa-a1eb-56bdb97fe14b)
    (property "Reference" "H3" (at 129.54 124.46 0)
      (effects (font (size 1.27 1.27)) (justify left))
    )
    (property "Value" "MountingHole_Pad" (at 129.54 127 0)
      (effects (font (size 1.27 1.27)) (justify left))
    )
    (property "Footprint" "MountingHole:MountingHole_3.2mm_M3_Pad_TopBottom" (at 127 127 0)
      (effects (font (size 1.27 1.27)) hide)
    )
    (property "Datasheet" "~" (at 127 127 0)
      (effects (font (size 1.27 1.27)) hide)
    )
    (pin "1" (uuid 0a966178-0ac2-46f4-8e69-dd83146c0382))
    (instances
      (project "resistive_attenuators"
        (path "/b8dd6313-79b0-486e-b3c8-bee088195b72"
          (reference "H3") (unit 1)
        )
      )
    )
  )

  (symbol (lib_id "Mechanical:MountingHole_Pad") (at 73.66 127 0) (unit 1)
    (in_bom yes) (on_board yes) (dnp no) (fields_autoplaced)
    (uuid 45dd66c3-4816-4aa1-8a2a-89b347fc1fae)
    (property "Reference" "H1" (at 76.2 124.46 0)
      (effects (font (size 1.27 1.27)) (justify left))
    )
    (property "Value" "MountingHole_Pad" (at 76.2 127 0)
      (effects (font (size 1.27 1.27)) (justify left))
    )
    (property "Footprint" "MountingHole:MountingHole_3.2mm_M3_Pad_TopBottom" (at 73.66 127 0)
      (effects (font (size 1.27 1.27)) hide)
    )
    (property "Datasheet" "~" (at 73.66 127 0)
      (effects (font (size 1.27 1.27)) hide)
    )
    (pin "1" (uuid 76ce0fde-47b8-4628-9c9f-afacd989aeab))
    (instances
      (project "resistive_attenuators"
        (path "/b8dd6313-79b0-486e-b3c8-bee088195b72"
          (reference "H1") (unit 1)
        )
      )
    )
  )

  (symbol (lib_id "Connector:Conn_Coaxial") (at 20.32 93.98 180) (unit 1)
    (in_bom yes) (on_board yes) (dnp no) (fields_autoplaced)
    (uuid 49e47e1a-d80b-4030-8138-806b6344ebf7)
    (property "Reference" "J1" (at 16.51 92.4168 0)
      (effects (font (size 1.27 1.27)) (justify left))
    )
    (property "Value" "Conn_Coaxial" (at 16.51 94.9568 0)
      (effects (font (size 1.27 1.27)) (justify left))
    )
    (property "Footprint" "Connector_Coaxial:SMA_Amphenol_132289_EdgeMount" (at 20.32 93.98 0)
      (effects (font (size 1.27 1.27)) hide)
    )
    (property "Datasheet" " ~" (at 20.32 93.98 0)
      (effects (font (size 1.27 1.27)) hide)
    )
    (pin "1" (uuid fd1018be-f19b-4692-8b5b-8569438ea374))
    (pin "2" (uuid 0267498c-7c4a-4a24-b599-f2009a8476b3))
    (instances
      (project "resistive_attenuators"
        (path "/b8dd6313-79b0-486e-b3c8-bee088195b72"
          (reference "J1") (unit 1)
        )
      )
    )
  )

  (symbol (lib_id "power:GND") (at 254 99.06 0) (unit 1)
    (in_bom yes) (on_board yes) (dnp no) (fields_autoplaced)
    (uuid 5878310e-e836-4f5a-ae81-33c7ae45fc3d)
    (property "Reference" "#PWR052" (at 254 105.41 0)
      (effects (font (size 1.27 1.27)) hide)
    )
    (property "Value" "GND" (at 254 104.14 0)
      (effects (font (size 1.27 1.27)))
    )
    (property "Footprint" "" (at 254 99.06 0)
      (effects (font (size 1.27 1.27)) hide)
    )
    (property "Datasheet" "" (at 254 99.06 0)
      (effects (font (size 1.27 1.27)) hide)
    )
    (pin "1" (uuid ca4323dd-762d-4f41-9773-d82ae8e5f2ce))
    (instances
      (project "resistive_attenuators"
        (path "/b8dd6313-79b0-486e-b3c8-bee088195b72"
          (reference "#PWR052") (unit 1)
        )
      )
    )
  )

  (symbol (lib_id "power:GND") (at 99.06 129.54 0) (unit 1)
    (in_bom yes) (on_board yes) (dnp no) (fields_autoplaced)
    (uuid 766a6e9b-246c-4f53-8468-36dabc993fe6)
    (property "Reference" "#PWR03" (at 99.06 135.89 0)
      (effects (font (size 1.27 1.27)) hide)
    )
    (property "Value" "GND" (at 99.06 134.62 0)
      (effects (font (size 1.27 1.27)))
    )
    (property "Footprint" "" (at 99.06 129.54 0)
      (effects (font (size 1.27 1.27)) hide)
    )
    (property "Datasheet" "" (at 99.06 129.54 0)
      (effects (font (size 1.27 1.27)) hide)
    )
    (pin "1" (uuid d2bb2ef8-24fc-42a6-ae43-507e995ab3c6))
    (instances
      (project "resistive_attenuators"
        (path "/b8dd6313-79b0-486e-b3c8-bee088195b72"
          (reference "#PWR03") (unit 1)
        )
      )
    )
  )

  (symbol (lib_id "power:GND") (at 110.49 58.42 270) (unit 1)
    (in_bom yes) (on_board yes) (dnp no) (fields_autoplaced)
    (uuid 86612d56-e772-4205-95ac-03762fcfcae6)
    (property "Reference" "#PWR01" (at 104.14 58.42 0)
      (effects (font (size 1.27 1.27)) hide)
    )
    (property "Value" "GND" (at 106.68 58.42 90)
      (effects (font (size 1.27 1.27)) (justify right))
    )
    (property "Footprint" "" (at 110.49 58.42 0)
      (effects (font (size 1.27 1.27)) hide)
    )
    (property "Datasheet" "" (at 110.49 58.42 0)
      (effects (font (size 1.27 1.27)) hide)
    )
    (pin "1" (uuid 8b5a9181-03d7-4f8b-8d26-52701fef3274))
    (instances
      (project "resistive_attenuators"
        (path "/b8dd6313-79b0-486e-b3c8-bee088195b72"
          (reference "#PWR01") (unit 1)
        )
      )
    )
  )

  (symbol (lib_id "power:GND") (at 73.66 129.54 0) (unit 1)
    (in_bom yes) (on_board yes) (dnp no) (fields_autoplaced)
    (uuid 9f0fedc7-78e4-46f0-8a52-0772fa62eabe)
    (property "Reference" "#PWR02" (at 73.66 135.89 0)
      (effects (font (size 1.27 1.27)) hide)
    )
    (property "Value" "GND" (at 73.66 134.62 0)
      (effects (font (size 1.27 1.27)))
    )
    (property "Footprint" "" (at 73.66 129.54 0)
      (effects (font (size 1.27 1.27)) hide)
    )
    (property "Datasheet" "" (at 73.66 129.54 0)
      (effects (font (size 1.27 1.27)) hide)
    )
    (pin "1" (uuid ca19f360-7c4b-4b15-9840-c40722cdea6d))
    (instances
      (project "resistive_attenuators"
        (path "/b8dd6313-79b0-486e-b3c8-bee088195b72"
          (reference "#PWR02") (unit 1)
        )
      )
    )
  )

  (symbol (lib_id "Mechanical:MountingHole_Pad") (at 99.06 127 0) (unit 1)
    (in_bom yes) (on_board yes) (dnp no) (fields_autoplaced)
    (uuid a21ca207-0a6b-4dd4-8d38-71342528f562)
    (property "Reference" "H2" (at 101.6 124.46 0)
      (effects (font (size 1.27 1.27)) (justify left))
    )
    (property "Value" "MountingHole_Pad" (at 101.6 127 0)
      (effects (font (size 1.27 1.27)) (justify left))
    )
    (property "Footprint" "MountingHole:MountingHole_3.2mm_M3_Pad_TopBottom" (at 99.06 127 0)
      (effects (font (size 1.27 1.27)) hide)
    )
    (property "Datasheet" "~" (at 99.06 127 0)
      (effects (font (size 1.27 1.27)) hide)
    )
    (pin "1" (uuid 1f91ce2d-1fea-46a2-abb5-719dbadd6976))
    (instances
      (project "resistive_attenuators"
        (path "/b8dd6313-79b0-486e-b3c8-bee088195b72"
          (reference "H2") (unit 1)
        )
      )
    )
  )

  (symbol (lib_id "Mechanical:MountingHole_Pad") (at 152.4 127 0) (unit 1)
    (in_bom yes) (on_board yes) (dnp no) (fields_autoplaced)
    (uuid c674adc2-9155-4a8f-bfd1-38cc2cbdda57)
    (property "Reference" "H4" (at 154.94 124.46 0)
      (effects (font (size 1.27 1.27)) (justify left))
    )
    (property "Value" "MountingHole_Pad" (at 154.94 127 0)
      (effects (font (size 1.27 1.27)) (justify left))
    )
    (property "Footprint" "MountingHole:MountingHole_3.2mm_M3_Pad_TopBottom" (at 152.4 127 0)
      (effects (font (size 1.27 1.27)) hide)
    )
    (property "Datasheet" "~" (at 152.4 127 0)
      (effects (font (size 1.27 1.27)) hide)
    )
    (pin "1" (uuid c97eaa97-1bde-452e-95e9-5b433266cefa))
    (instances
      (project "resistive_attenuators"
        (path "/b8dd6313-79b0-486e-b3c8-bee088195b72"
          (reference "H4") (unit 1)
        )
      )
    )
  )

  (symbol (lib_id "power:GND") (at 20.32 88.9 180) (unit 1)
    (in_bom yes) (on_board yes) (dnp no) (fields_autoplaced)
    (uuid d102027f-205d-4b7b-98b8-7161722665ea)
    (property "Reference" "#PWR010" (at 20.32 82.55 0)
      (effects (font (size 1.27 1.27)) hide)
    )
    (property "Value" "GND" (at 20.32 83.82 0)
      (effects (font (size 1.27 1.27)))
    )
    (property "Footprint" "" (at 20.32 88.9 0)
      (effects (font (size 1.27 1.27)) hide)
    )
    (property "Datasheet" "" (at 20.32 88.9 0)
      (effects (font (size 1.27 1.27)) hide)
    )
    (pin "1" (uuid a87da25c-d581-4003-a714-00ff0f5ca3fa))
    (instances
      (project "resistive_attenuators"
        (path "/b8dd6313-79b0-486e-b3c8-bee088195b72"
          (reference "#PWR010") (unit 1)
        )
      )
    )
  )

  (symbol (lib_id "Connector:Conn_01x12_Socket") (at 125.73 63.5 270) (unit 1)
    (in_bom yes) (on_board yes) (dnp no) (fields_autoplaced)
    (uuid e2c00a89-505d-4873-8dcd-1e2aaa59947b)
    (property "Reference" "J5" (at 124.46 66.04 90)
      (effects (font (size 1.27 1.27)))
    )
    (property "Value" "Conn_01x12_Socket" (at 124.46 68.58 90)
      (effects (font (size 1.27 1.27)))
    )
    (property "Footprint" "Connector_PinHeader_2.54mm:PinHeader_2x06_P2.54mm_Vertical" (at 125.73 63.5 0)
      (effects (font (size 1.27 1.27)) hide)
    )
    (property "Datasheet" "~" (at 125.73 63.5 0)
      (effects (font (size 1.27 1.27)) hide)
    )
    (pin "1" (uuid ae8bf20c-89f4-4b46-85c4-2c232c375811))
    (pin "8" (uuid 4ffaaf01-bcdc-45ea-9fae-7bf99c49fa89))
    (pin "3" (uuid 54ec9cdf-574d-4d5f-9818-c4c1d2f96a2e))
    (pin "2" (uuid 3da8556b-0205-4735-9d20-7f8d9ff97f45))
    (pin "10" (uuid a41317e0-8b67-4834-8a3b-7be2ebe5a78b))
    (pin "6" (uuid 9fd21ba1-0484-4fe3-83d2-dfe9bb8ae8a5))
    (pin "4" (uuid edacecfb-e2b5-47a2-85cd-c0b2a7e37ab1))
    (pin "12" (uuid 283b35c3-fafb-4c33-aef9-35065c5c479a))
    (pin "9" (uuid 6b458d91-6e4f-4bc5-817d-5a2111072f75))
    (pin "7" (uuid baac93d1-aa7b-41ed-b855-31c039abc22f))
    (pin "5" (uuid bd36fd30-6619-415d-aecd-710ac4ba50ea))
    (pin "11" (uuid a999d35b-a266-4670-8576-8995666e75b3))
    (instances
      (project "resistive_attenuators"
        (path "/b8dd6313-79b0-486e-b3c8-bee088195b72"
          (reference "J5") (unit 1)
        )
      )
    )
  )

  (symbol (lib_id "Device:C") (at 31.75 93.98 90) (unit 1)
    (in_bom yes) (on_board yes) (dnp no) (fields_autoplaced)
    (uuid f9ebebe5-cac1-453e-881e-62645657bbeb)
    (property "Reference" "C1" (at 31.75 86.36 90)
      (effects (font (size 1.27 1.27)))
    )
    (property "Value" "1n" (at 31.75 88.9 90)
      (effects (font (size 1.27 1.27)))
    )
    (property "Footprint" "Capacitor_SMD:C_0603_1608Metric" (at 35.56 93.0148 0)
      (effects (font (size 1.27 1.27)) hide)
    )
    (property "Datasheet" "~" (at 31.75 93.98 0)
      (effects (font (size 1.27 1.27)) hide)
    )
    (pin "2" (uuid 434f1e25-ba1d-48e6-aae4-c64a5544e62b))
    (pin "1" (uuid 3a2b58ab-537f-4886-a837-128577d46941))
    (instances
      (project "resistive_attenuators"
        (path "/b8dd6313-79b0-486e-b3c8-bee088195b72"
          (reference "C1") (unit 1)
        )
      )
    )
  )

  (sheet (at 40.64 87.63) (size 34.29 13.97)
    (stroke (width 0.1524) (type solid))
    (fill (color 0 0 0 0.0000))
    (uuid 55b554da-1dc7-4207-8c07-aa1860819fef)
    (property "Sheetname" "switch_attenuator_switch0" (at 45.72 100.33 0)
      (effects (font (size 1.27 1.27)) (justify left bottom))
    )
    (property "Sheetfile" "untitled.kicad_sch.kicad_sch" (at 40.64 102.1846 0)
      (effects (font (size 1.27 1.27)) (justify left top) hide)
    )
    (pin "RFC_in" input (at 40.64 93.98 180)
      (effects (font (size 1.27 1.27)) (justify left))
      (uuid 4cf29804-e3a6-4197-b6b3-8747ce5d1e8e)
    )
    (pin "VDD" input (at 57.15 87.63 90)
      (effects (font (size 1.27 1.27)) (justify right))
      (uuid 824c2acb-52a8-4c18-89bc-2e0b26f9f5b4)
    )
    (pin "RFC_out" input (at 74.93 93.98 0)
      (effects (font (size 1.27 1.27)) (justify right))
      (uuid a2864eaa-82ec-4014-a4f5-3f951283ee1e)
    )
    (pin "CTRL2" input (at 50.8 87.63 90)
      (effects (font (size 1.27 1.27)) (justify right))
      (uuid 14d668b8-b6a5-480c-9fb8-d834a3dec97c)
    )
    (pin "CTRL1" input (at 63.5 87.63 90)
      (effects (font (size 1.27 1.27)) (justify right))
      (uuid 5cd194f3-9266-4f6a-99d2-b93bf7304af4)
    )
    (instances
      (project "resistive_attenuators"
        (path "/b8dd6313-79b0-486e-b3c8-bee088195b72" (page "2"))
      )
    )
  )

  (sheet (at 204.47 87.63) (size 33.02 13.97)
    (stroke (width 0.1524) (type solid))
    (fill (color 0 0 0 0.0000))
    (uuid 65fb8d20-e204-406e-9756-2665dde74c41)
    (property "Sheetname" "switch_attenuator_switch4" (at 208.28 100.33 0)
      (effects (font (size 1.27 1.27)) (justify left bottom))
    )
    (property "Sheetfile" "switch_attenuator_switch.kicad_sch" (at 204.47 102.1846 0)
      (effects (font (size 1.27 1.27)) (justify left top) hide)
    )
    (property "R1" "68.1" (at 209.55 102.87 0) (show_name)
      (effects (font (size 1.27 1.27)))
    )
    (property "R2" "154" (at 220.98 102.87 0) (show_name)
      (effects (font (size 1.27 1.27)))
    )
    (property "R3" "68.1" (at 232.41 102.87 0) (show_name)
      (effects (font (size 1.27 1.27)))
    )
    (pin "RFC_in" input (at 204.47 93.98 180)
      (effects (font (size 1.27 1.27)) (justify left))
      (uuid 9cfb6a3b-a5b6-4557-889d-518e74118203)
    )
    (pin "VDD" input (at 219.71 87.63 90)
      (effects (font (size 1.27 1.27)) (justify right))
      (uuid e841d9d1-78ed-4295-ade8-d5e02829ea1c)
    )
    (pin "RFC_out" input (at 237.49 93.98 0)
      (effects (font (size 1.27 1.27)) (justify right))
      (uuid 3f03dd2a-aa7d-4c68-b32d-8967917ecc2f)
    )
    (pin "CTRL4" input (at 213.36 87.63 90)
      (effects (font (size 1.27 1.27)) (justify right))
      (uuid cc96f539-3693-4b51-9328-6d920a58d82c)
    )
    (pin "CTRL3" input (at 226.06 87.63 90)
      (effects (font (size 1.27 1.27)) (justify right))
      (uuid 97ad42c0-254e-40a3-aa58-1960fb0a3d01)
    )
    (instances
      (project "resistive_attenuators"
        (path "/b8dd6313-79b0-486e-b3c8-bee088195b72" (page "6"))
      )
    )
  )

  (sheet (at 163.83 87.63) (size 33.02 13.97)
    (stroke (width 0.1524) (type solid))
    (fill (color 0 0 0 0.0000))
    (uuid 74729b05-d355-454a-92db-ae32cd9f6913)
    (property "Sheetname" "switch_attenuator_switch3" (at 167.64 100.33 0)
      (effects (font (size 1.27 1.27)) (justify left bottom))
    )
    (property "Sheetfile" "switch_attenuator_switch.kicad_sch" (at 163.83 102.1846 0)
      (effects (font (size 1.27 1.27)) (justify left top) hide)
    )
    (property "R1" "115" (at 168.91 102.87 0) (show_name)
      (effects (font (size 1.27 1.27)))
    )
    (property "R2" "53.6" (at 180.34 102.87 0) (show_name)
      (effects (font (size 1.27 1.27)))
    )
    (property "R3" "115" (at 191.77 102.87 0) (show_name)
      (effects (font (size 1.27 1.27)))
    )
    (pin "RFC_in" input (at 163.83 93.98 180)
      (effects (font (size 1.27 1.27)) (justify left))
      (uuid 350ad8d8-f294-45cf-a1cb-f4af659de369)
    )
    (pin "VDD" input (at 180.34 87.63 90)
      (effects (font (size 1.27 1.27)) (justify right))
      (uuid d76fb7cc-3fc4-4631-9038-03c0161f32fe)
    )
    (pin "RFC_out" input (at 196.85 93.98 0)
      (effects (font (size 1.27 1.27)) (justify right))
      (uuid f2698480-d216-4299-b5b3-bc49961d7092)
    )
    (pin "CTRL4" input (at 173.99 87.63 90)
      (effects (font (size 1.27 1.27)) (justify right))
      (uuid 05924a17-0862-4098-95c2-d33dd09c9598)
    )
    (pin "CTRL3" input (at 186.69 87.63 90)
      (effects (font (size 1.27 1.27)) (justify right))
      (uuid 92ba1eb1-04ce-4c70-a50a-710639a3d325)
    )
    (instances
      (project "resistive_attenuators"
        (path "/b8dd6313-79b0-486e-b3c8-bee088195b72" (page "5"))
      )
    )
  )

  (sheet (at 123.19 87.63) (size 33.02 13.97)
    (stroke (width 0.1524) (type solid))
    (fill (color 0 0 0 0.0000))
    (uuid c9153f02-346e-4115-9ebc-35ed9506e42d)
    (property "Sheetname" "switch_attenuator_switch2" (at 128.27 100.33 0)
      (effects (font (size 1.27 1.27)) (justify left bottom))
    )
    (property "Sheetfile" "switch_attenuator_switch.kicad_sch" (at 123.19 102.1846 0)
      (effects (font (size 1.27 1.27)) (justify left top) hide)
    )
    (property "R1" "226" (at 128.27 102.87 0) (show_name)
      (effects (font (size 1.27 1.27)))
    )
    (property "R2" "23.7" (at 139.7 102.87 0) (show_name)
      (effects (font (size 1.27 1.27)))
    )
    (property "R3" "226" (at 151.13 102.87 0) (show_name)
      (effects (font (size 1.27 1.27)))
    )
    (pin "RFC_in" input (at 123.19 93.98 180)
      (effects (font (size 1.27 1.27)) (justify left))
      (uuid 93a94945-2403-4daa-ac13-d62e99114220)
    )
    (pin "VDD" input (at 139.7 87.63 90)
      (effects (font (size 1.27 1.27)) (justify right))
      (uuid 9ddc9162-adee-4cd5-8584-fc8850edfe10)
    )
    (pin "RFC_out" input (at 156.21 93.98 0)
      (effects (font (size 1.27 1.27)) (justify right))
      (uuid 27ffb649-74e4-4e07-8186-2c318f6707b9)
    )
    (pin "CTRL4" input (at 133.35 87.63 90)
      (effects (font (size 1.27 1.27)) (justify right))
      (uuid ba3d51f0-fd81-4a12-abe5-8b28a584aef1)
    )
    (pin "CTRL3" input (at 146.05 87.63 90)
      (effects (font (size 1.27 1.27)) (justify right))
      (uuid be8b50c4-6dae-408d-8ca4-c0b6e91977fd)
    )
    (instances
      (project "resistive_attenuators"
        (path "/b8dd6313-79b0-486e-b3c8-bee088195b72" (page "4"))
      )
    )
  )

  (sheet (at 82.55 87.63) (size 33.02 13.97)
    (stroke (width 0.1524) (type solid))
    (fill (color 0 0 0 0.0000))
    (uuid fb1f4c32-02af-4c3b-8a81-c4a70f557901)
    (property "Sheetname" "switch_attenuator_switch1" (at 87.63 100.33 0)
      (effects (font (size 1.27 1.27)) (justify left bottom))
    )
    (property "Sheetfile" "switch_attenuator_switch.kicad_sch" (at 82.55 102.1846 0)
      (effects (font (size 1.27 1.27)) (justify left top) hide)
    )
    (property "R1" "422" (at 87.63 102.87 0) (show_name)
      (effects (font (size 1.27 1.27)))
    )
    (property "R2" "12.1" (at 99.06 102.87 0) (show_name)
      (effects (font (size 1.27 1.27)))
    )
    (property "R3" "422" (at 110.49 102.87 0) (show_name)
      (effects (font (size 1.27 1.27)))
    )
    (pin "RFC_in" input (at 82.55 93.98 180)
      (effects (font (size 1.27 1.27)) (justify left))
      (uuid bab69d6f-09d7-4af8-8ca1-b9b5c502062f)
    )
    (pin "VDD" input (at 99.06 87.63 90)
      (effects (font (size 1.27 1.27)) (justify right))
      (uuid befb1b05-950e-4c5b-93ff-0fbbe5d978e3)
    )
    (pin "RFC_out" input (at 115.57 93.98 0)
      (effects (font (size 1.27 1.27)) (justify right))
      (uuid d92d68d8-3ba0-456c-b0ff-5f94cc7c399a)
    )
    (pin "CTRL4" input (at 92.71 87.63 90)
      (effects (font (size 1.27 1.27)) (justify right))
      (uuid f2b613c4-3b25-413a-bac2-593f39355322)
    )
    (pin "CTRL3" input (at 105.41 87.63 90)
      (effects (font (size 1.27 1.27)) (justify right))
      (uuid f1dfb063-636d-4318-b781-a33078a1925e)
    )
    (instances
      (project "resistive_attenuators"
        (path "/b8dd6313-79b0-486e-b3c8-bee088195b72" (page "3"))
      )
    )
  )

  (sheet_instances
    (path "/" (page "1"))
  )
)
