<QucsStudio Schematic 4.3.1>
<Properties>
View=0,-720,1846,1263,0.715976,0,397
Grid=10,10,1
DataSet=*.dat
DataDisplay=
OpenDisplay=1
showFrame=0
FrameText0=Title
FrameText1=Drawn By:
FrameText2=Date:
FrameText3=Revision:
</Properties>
<Symbol>
</Symbol>
<Components>
GND * 1 410 140 0 0 0 0
SPfile X1 1 410 110 -26 -59 0 0 "PE4259_de_embed_S2P/PE4259_RFC_RF1_de_embed.s2p" 1 "2" 0 "polar" 0 "linear" 0 "short" 0 "none" 0 "block" 0 "SOT23" 0
Pac P1 1 130 140 18 -26 0 0 "1" 1 "50 Ω" 1 "0 dBm" 0 "1 GHz" 0 "26.85" 0 "SUBCLICK" 0
GND * 1 130 170 0 0 0 0
GND * 1 240 170 0 0 0 0
SPfile X2 1 570 110 -39 -98 0 2 "PE4259_de_embed_S2P/PE4259_RFC_RF2_de_embed.s2p" 1 "2" 0 "polar" 0 "linear" 0 "short" 0 "none" 0 "block" 0 "SOT23" 0
GND * 1 570 80 0 0 0 2
GND * 1 750 190 0 0 0 0
C C3 1 190 110 -26 -55 0 2 "1 nF" 1 "0" 0 "" 0 "neutral" 0 "SMD0603" 0
.SP SP1 1 80 660 0 63 0 0 "lin" 1 "10 MHz" 1 "3 GHz" 1 "19" 1 "no" 0 "1" 0 "2" 0 "none" 0
GND * 1 1040 140 0 0 0 0
SPfile X3 1 1040 110 -26 -59 0 0 "PE4259_de_embed_S2P/PE4259_RFC_RF1_de_embed.s2p" 1 "2" 0 "polar" 0 "linear" 0 "short" 0 "none" 0 "block" 0 "SOT23" 0
GND * 1 870 170 0 0 0 0
SPfile X4 1 1200 110 -39 -98 0 2 "PE4259_de_embed_S2P/PE4259_RFC_RF2_de_embed.s2p" 1 "2" 0 "polar" 0 "linear" 0 "short" 0 "none" 0 "block" 0 "SOT23" 0
GND * 1 1200 80 0 0 0 2
GND * 1 1380 190 0 0 0 0
GND * 1 300 330 0 0 0 0
SPfile X5 1 300 300 -26 -59 0 0 "PE4259_de_embed_S2P/PE4259_RFC_RF1_de_embed.s2p" 1 "2" 0 "polar" 0 "linear" 0 "short" 0 "none" 0 "block" 0 "SOT23" 0
GND * 1 130 360 0 0 0 0
SPfile X6 1 460 300 -39 -98 0 2 "PE4259_de_embed_S2P/PE4259_RFC_RF2_de_embed.s2p" 1 "2" 0 "polar" 0 "linear" 0 "short" 0 "none" 0 "block" 0 "SOT23" 0
GND * 1 460 270 0 0 0 2
GND * 1 640 380 0 0 0 0
GND * 1 970 330 0 0 0 0
SPfile X7 1 970 300 -26 -59 0 0 "PE4259_de_embed_S2P/PE4259_RFC_RF1_de_embed.s2p" 1 "2" 0 "polar" 0 "linear" 0 "short" 0 "none" 0 "block" 0 "SOT23" 0
GND * 1 800 360 0 0 0 0
SPfile X8 1 1130 300 -921 -980 0 2 "PE4259_de_embed_S2P/PE4259_RFC_RF2_de_embed.s2p" 1 "2" 0 "polar" 0 "linear" 0 "short" 0 "none" 0 "block" 0 "SOT23" 0
GND * 1 1130 270 0 0 0 2
GND * 1 1310 380 0 0 0 0
GND * 1 1010 530 0 0 0 0
SPfile X9 1 1010 500 -26 -59 0 0 "PE4259_de_embed_S2P/PE4259_RFC_RF1_de_embed.s2p" 1 "2" 0 "polar" 0 "linear" 0 "short" 0 "none" 0 "block" 0 "SOT23" 0
GND * 1 840 560 0 0 0 0
SPfile X10 1 1170 500 -39 -98 0 2 "PE4259_de_embed_S2P/PE4259_RFC_RF2_de_embed.s2p" 1 "2" 0 "polar" 0 "linear" 0 "short" 0 "none" 0 "block" 0 "SOT23" 0
GND * 1 1170 470 0 0 0 2
GND * 1 1350 580 0 0 0 0
Pac P2 1 1480 540 18 -26 0 0 "2" 1 "50 Ω" 1 "0 dBm" 0 "1 GHz" 0 "26.85" 0 "SUBCLICK" 0
GND * 1 1480 570 0 0 0 0
C C12 1 1420 500 -26 -55 0 2 "1 nF" 1 "0" 0 "" 0 "neutral" 0 "SMD0603" 0
C C1 1 240 140 17 -26 0 1 "0.90 pF" 1 "0" 0 "" 0 "neutral" 0 "SMD0603" 0
L L1 1 310 110 -26 -54 0 0 "2nH" 1 "0" 0 "" 0 "SELF-WE-PD3S" 0
L L2 1 670 110 -26 10 0 0 "2 nH" 1 "0" 0 "" 0 "SELF-WE-PD3S" 0
C C2 1 750 160 17 -26 0 1 "0.9 pF" 1 "0" 0 "" 0 "neutral" 0 "SMD0603" 0
C C4 1 870 140 17 -26 0 1 "0.9 pF" 1 "0" 0 "" 0 "neutral" 0 "SMD0603" 0
L L3 1 940 110 -26 -54 0 0 "2nH" 1 "0" 0 "" 0 "SELF-WE-PD3S" 0
L L4 1 1300 110 -26 10 0 0 "2 nH" 1 "0" 0 "" 0 "SELF-WE-PD3S" 0
C C5 1 1380 160 17 -26 0 1 "0.9 pF" 1 "0" 0 "" 0 "neutral" 0 "SMD0603" 0
C C6 1 130 330 17 -26 0 1 "0.9 pF" 1 "0" 0 "" 0 "neutral" 0 "SMD0603" 0
L L5 1 200 300 -26 -54 0 0 "2nH" 1 "0" 0 "" 0 "SELF-WE-PD3S" 0
L L6 1 560 300 -26 10 0 0 "2 nH" 1 "0" 0 "" 0 "SELF-WE-PD3S" 0
C C7 1 640 350 17 -26 0 1 "0.9 pF" 1 "0" 0 "" 0 "neutral" 0 "SMD0603" 0
C C8 1 800 330 17 -26 0 1 "0.9 pF" 1 "0" 0 "" 0 "neutral" 0 "SMD0603" 0
L L7 1 870 300 -26 -54 0 0 "2 nH" 1 "0" 0 "" 0 "SELF-WE-PD3S" 0
L L8 1 1230 300 -26 10 0 0 "2 nH" 1 "0" 0 "" 0 "SELF-WE-PD3S" 0
C C9 1 1310 350 17 -26 0 1 "0.9 pF" 1 "0" 0 "" 0 "neutral" 0 "SMD0603" 0
C C10 1 840 530 17 -26 0 1 "0.9 pF" 1 "0" 0 "" 0 "neutral" 0 "SMD0603" 0
L L9 1 910 500 -26 -54 0 0 "2 nH" 1 "0" 0 "" 0 "SELF-WE-PD3S" 0
L L10 1 1270 500 -26 10 0 0 "2 nH" 1 "0" 0 "" 0 "SELF-WE-PD3S" 0
C C11 1 1350 550 17 -26 0 1 "0.9 pF" 1 "0" 0 "" 0 "neutral" 0 "SMD0603" 0
</Components>
<Wires>
130 110 160 110 "" 0 0 0 ""
340 110 380 110 "" 0 0 0 ""
440 110 540 110 "" 0 0 0 ""
600 110 640 110 "" 0 0 0 ""
750 110 750 130 "" 0 0 0 ""
700 110 750 110 "" 0 0 0 ""
220 110 240 110 "" 0 0 0 ""
970 110 1010 110 "" 0 0 0 ""
1070 110 1170 110 "" 0 0 0 ""
1230 110 1270 110 "" 0 0 0 ""
1380 110 1380 130 "" 0 0 0 ""
1330 110 1380 110 "" 0 0 0 ""
230 300 270 300 "" 0 0 0 ""
330 300 430 300 "" 0 0 0 ""
490 300 530 300 "" 0 0 0 ""
640 300 640 320 "" 0 0 0 ""
590 300 640 300 "" 0 0 0 ""
110 300 130 300 "" 0 0 0 ""
750 110 870 110 "" 0 0 0 ""
1070 80 1070 110 "" 0 0 0 ""
900 300 940 300 "" 0 0 0 ""
1000 300 1100 300 "" 0 0 0 ""
1160 300 1200 300 "" 0 0 0 ""
1310 300 1310 320 "" 0 0 0 ""
110 210 110 300 "" 0 0 0 ""
110 210 1440 210 "" 0 0 0 ""
1440 110 1440 210 "" 0 0 0 ""
1380 110 1440 110 "" 0 0 0 ""
640 300 800 300 "" 0 0 0 ""
1260 300 1310 300 "" 0 0 0 ""
940 500 980 500 "" 0 0 0 ""
1040 500 1140 500 "" 0 0 0 ""
1200 500 1240 500 "" 0 0 0 ""
1350 500 1350 520 "" 0 0 0 ""
1300 500 1350 500 "" 0 0 0 ""
820 500 840 500 "" 0 0 0 ""
1350 500 1390 500 "" 0 0 0 ""
1480 500 1480 510 "" 0 0 0 ""
1310 300 1480 300 "" 0 0 0 ""
1480 300 1480 430 "" 0 0 0 ""
820 430 1480 430 "" 0 0 0 ""
820 430 820 500 "" 0 0 0 ""
1450 500 1480 500 "" 0 0 0 ""
240 110 280 110 "" 0 0 0 ""
870 110 910 110 "" 0 0 0 ""
130 300 170 300 "" 0 0 0 ""
800 300 840 300 "" 0 0 0 ""
840 500 880 500 "" 0 0 0 ""
</Wires>
<Diagrams>
<Smith 293 900 220 220 31 #c0c0c0 1 00 1 0 1 1 1 0 4 1 1 0 4 1 315 0 225 "" "" "">
	<Legend 10 -100 0>
	<"S[2,2]" "" #0000ff 0 3 0 0 0 0 "">
</Smith>
<Smith 963 900 220 220 31 #c0c0c0 1 00 1 0 1 1 1 0 4 1 1 0 4 1 315 0 225 "" "" "">
	<Legend 10 -100 0>
	<"S[1,1]" "" #ff0000 0 3 0 0 0 0 "">
</Smith>
<Rect 1263 890 360 220 31 #c0c0c0 1 00 1 0 5e+08 3e+09 1 -35.5351 10 3.42918 1 0 0 0 315 0 225 "" "" "">
	<Legend 10 -100 0>
	<"dB(S[1,1])" "" #0000ff 0 3 0 0 0 0 "">
	<"dB(S[2,1])" "" #ff0000 0 3 0 0 0 0 "">
	  <Mkr 1.17278e+09 197 -250 3 1 0 0 0 50>
	  <Mkr 2.83389e+09 397 -240 3 1 0 0 0 50>
	  <Mkr 2.66778e+09 387 -300 3 1 0 0 0 50>
</Rect>
<Rect 573 890 360 220 31 #c0c0c0 1 00 1 0 5e+08 3e+09 1 -35.5351 10 3.42918 1 0 0 0 315 0 225 "" "" "">
	<Legend 10 -100 0>
	<"dB(S[2,2])" "" #0000ff 0 3 0 0 0 0 "">
</Rect>
</Diagrams>
<Paintings>
</Paintings>
