(footprint "CAP_GRM0335_P6XP3_MUR" (version 20211014) (generator pcbnew)
  (layer "F.Cu")
  (tags "GJM0335C1ER90WB01D ")
  (attr smd)
  (fp_text reference "REF**" (at 0 0 unlocked) (layer F.SilkS)
    (effects (font (size 1 1) (thickness 0.15)))
  )
  (fp_text value CAP_GRM0335_P6XP3_MUR (at 0 0 unlocked) (layer F.Fab)
    (effects (font (size 1 1) (thickness 0.15)))
  )
  (fp_text user "${REFERENCE}" (at 0 0 unlocked) (layer F.Fab)
    (effects (font (size 1 1) (thickness 0.15)))
  )
  (zone (net 0) (net_name "") (layer "F.Cu") (hatch full 0.508)
    (connect_pads (clearance 0))
    (min_thickness 0.254)
    (keepout (tracks not_allowed) (vias not_allowed) (pads allowed ) (copperpour not_allowed) (footprints allowed))
    (fill (thermal_gap 0.508) (thermal_bridge_width 0.508))
    (polygon
      (pts
        (xy -0.0635 -0.1143)
        (xy 0.0635 -0.1143)
        (xy 0.0635 0.1143)
        (xy -0.0635 0.1143)
      )
    )
  )
  (fp_line (start -1.3843 0.6985) (end -1.3843 -0.6985) (layer "F.CrtYd") (width 0.1524))
  (fp_line (start -1.3843 -0.6985) (end 1.3843 -0.6985) (layer "F.CrtYd") (width 0.1524))
  (fp_line (start 1.3843 -0.6985) (end 1.3843 0.6985) (layer "F.CrtYd") (width 0.1524))
  (fp_line (start 1.3843 0.6985) (end -1.3843 0.6985) (layer "F.CrtYd") (width 0.1524))
  (fp_circle (center -0.3683 0) (end -0.2921 0) (layer "F.Fab") (width 0.0254) (fill none))
  (fp_circle (center -1.7145 0) (end -1.6383 0) (layer "F.SilkS") (width 0.1524) (fill none))
  (fp_line (start -0.1143 0.1651) (end -0.1143 -0.1651) (layer "F.Fab") (width 0.0254))
  (fp_line (start -0.1143 -0.1651) (end -0.3175 -0.1651) (layer "F.Fab") (width 0.0254))
  (fp_line (start -0.3175 -0.1651) (end -0.3175 0.1651) (layer "F.Fab") (width 0.0254))
  (fp_line (start -0.3175 0.1651) (end -0.1143 0.1651) (layer "F.Fab") (width 0.0254))
  (fp_line (start 0.1143 -0.1651) (end 0.1143 0.1651) (layer "F.Fab") (width 0.0254))
  (fp_line (start 0.1143 0.1651) (end 0.3175 0.1651) (layer "F.Fab") (width 0.0254))
  (fp_line (start 0.3175 0.1651) (end 0.3175 -0.1651) (layer "F.Fab") (width 0.0254))
  (fp_line (start 0.3175 -0.1651) (end 0.1143 -0.1651) (layer "F.Fab") (width 0.0254))
  (fp_line (start -0.3175 0.1651) (end 0.3175 0.1651) (layer "F.Fab") (width 0.0254))
  (fp_line (start 0.3175 0.1651) (end 0.3175 -0.1651) (layer "F.Fab") (width 0.0254))
  (fp_line (start 0.3175 -0.1651) (end -0.3175 -0.1651) (layer "F.Fab") (width 0.0254))
  (fp_line (start -0.3175 -0.1651) (end -0.3175 0.1651) (layer "F.Fab") (width 0.0254))
  (pad "1" smd rect (at -0.4953 0) (size 0.762 0.381) (layers "F.Cu" "F.Paste" "F.Mask"))
  (pad "2" smd rect (at 0.4953 0) (size 0.762 0.381) (layers "F.Cu" "F.Paste" "F.Mask"))
)
